afifo/sim/tb_afifo.vcd
$date
   Tue Mar 21 11:38:27 2023
$end
$version
  2019.2
$end
$timescale
  1ps
$end
$scope module tb_afifo $end
$var reg 1 ! w_clk $end
$var reg 1 " r_clk $end
$var reg 1 # w_rst $end
$var reg 1 $ r_rst $end
$var reg 1 % w_en $end
$var reg 1 & r_en $end
$var wire 1 ' w_full $end
$var wire 1 ( r_empty $end
$var reg 32 ) w_data_in [31:0] $end
$var wire 32 * r_data_out [31:0] $end
$var parameter 32 + CLK_PERIOD_W [31:0] $end
$var parameter 32 , CLK_PERIOD_R [31:0] $end
$var parameter 32 - WIDTH [31:0] $end
$var parameter 32 . DEPTH [31:0] $end
$scope module dut $end
$var wire 1 / i_wclk $end
$var wire 1 0 i_wrst $end
$var wire 1 1 i_wen $end
$var wire 32 2 i_wr_data [31:0] $end
$var wire 1 ' o_full $end
$var wire 1 3 i_rclk $end
$var wire 1 4 i_rrst $end
$var wire 1 5 i_ren $end
$var wire 1 ( o_empty $end
$var wire 32 * o_rd_data [31:0] $end
$var reg 1 6 wr_addr [0:0] $end
$var reg 1 7 rd_addr [0:0] $end
$var wire 1 8 wr_ptr_gray [0:0] $end
$var wire 1 9 rd_ptr_gray [0:0] $end
$var wire 1 : wr_ptr_gray_synced [0:0] $end
$var wire 1 ; rd_ptr_gray_synced [0:0] $end
$var parameter 32 < C_DEPTH [31:0] $end
$var parameter 32 = C_WIDTH [31:0] $end
$var parameter 32 > COUNTER_WIDTH [31:0] $end
$scope module genblk1[0].wr_ptr_gray_synchronizer $end
$var wire 1 3 i_clk $end
$var wire 1 4 i_rst $end
$var wire 1 8 i_data $end
$var wire 1 : o_data $end
$var parameter 32 ? C_NUM_LEVELS [31:0] $end
$upscope $end
$scope module genblk2[0].rd_ptr_synchronizer $end
$var wire 1 / i_clk $end
$var wire 1 0 i_rst $end
$var wire 1 9 i_data $end
$var wire 1 ; o_data $end
$var parameter 32 @ C_NUM_LEVELS [31:0] $end
$upscope $end
$scope function bin2gray $end
$var reg 1 A bin2gray [0:0] $end
$var reg 1 B bin_ip [0:0] $end
$upscope $end
$upscope $end
$upscope $end
$enddefinitions $end
#0
$dumpvars
0!
0"
0#
0$
0%
0&
x'
x(
bx )
bx *
b1010 +
b1111 ,
b100000 -
b1 .
0/
00
01
bx 2
03
04
05
x6
x7
x8
x9
x:
x;
b1 <
b100000 =
b1 >
b10 ?
b10 @
xA
xB
$end
#5000
1!
1/
#6000
1#
10
#7000
1"
13
#8000
1$
14
#10000
0!
0/
#14000
0"
03
#15000
1!
0'
1/
06
08
0;
0A
0B
#16000
0#
00
#20000
0!
0/
#21000
1"
1(
13
07
09
0:
#22000
0$
04
#25000
1!
1/
#28000
0"
03
#30000
0!
0/
#35000
1!
1"
1/
13
#36000
1%
b1101001011001100001001000010110 )
11
b1101001011001100001001000010110 2
#40000
0!
0/
#42000
0"
03
#45000
1!
1'
b1101001011001100001001000010110 *
1/
16
18
1A
1B
#46000
0%
01
#49000
1"
13
#50000
0!
0/
#55000
1!
1/
#56000
0"
03
#60000
0!
0/
#63000
1"
0(
13
1:
#65000
1!
1/
#70000
0!
0"
0/
03
#75000
1!
1/
#77000
1"
13
#78000
1&
15
#80000
0!
0/
#84000
0"
03
#85000
1!
1/
#90000
0!
0/
#91000
1"
1(
13
17
19
#95000
1!
1/
#98000
0"
03
#100000
0!
0/
#105000
1!
1"
0'
1/
13
1;
#106000
0&
05
#110000
0!
0/
#112000
0"
03
#115000
1!
1/
#116000
1%
11
#117000
b1011010001011001001111100100 )
b1011010001011001001111100100 2
#119000
1"
13
#120000
0!
0/
#125000
1!
1'
b1011010001011001001111100100 *
1/
06
08
0A
0B
#126000
0"
0%
01
03
#130000
0!
0/
#133000
1"
13
#135000
1!
1/
#140000
0!
0"
0/
03
#145000
1!
1/
#147000
1"
0(
13
0:
#150000
0!
0/
#154000
0"
03
#155000
1!
1/
#160000
0!
0/
#161000
1"
13
#162000
1&
15
#165000
1!
1/
#168000
0"
03
#170000
0!
0/
#175000
1!
1"
1(
1/
13
07
09
