afifo/sim/tb_afifo.vcd
$date
   Tue Mar  7 18:33:29 2023
$end
$version
  2019.2
$end
$timescale
  1ps
$end
$scope module tb_afifo $end
$var reg 1 ! w_clk $end
$var reg 1 " r_clk $end
$var reg 1 # w_rst $end
$var reg 1 $ r_rst $end
$var reg 1 % w_en $end
$var reg 1 & r_en $end
$var wire 1 ' w_full $end
$var wire 1 ( r_empty $end
$var reg 32 ) w_data_in [31:0] $end
$var wire 32 * r_data_out [31:0] $end
$var parameter 32 + CLK_PERIOD_W [31:0] $end
$var parameter 32 , CLK_PERIOD_R [31:0] $end
$var parameter 32 - WIDTH [31:0] $end
$var parameter 32 . DEPTH [31:0] $end
$scope module dut $end
$var wire 1 / i_wclk $end
$var wire 1 0 i_wrst $end
$var wire 1 1 i_wen $end
$var wire 32 2 i_wr_data [31:0] $end
$var wire 1 ' o_full $end
$var wire 1 3 i_rclk $end
$var wire 1 4 i_rrst $end
$var wire 1 5 i_ren $end
$var wire 1 ( o_empty $end
$var wire 32 * o_rd_data [31:0] $end
$var reg 7 6 wr_addr [6:0] $end
$var reg 7 7 rd_addr [6:0] $end
$var wire 7 8 wr_ptr_gray [6:0] $end
$var wire 7 9 rd_ptr_gray [6:0] $end
$var wire 7 : wr_ptr_gray_synced [6:0] $end
$var wire 7 ; rd_ptr_gray_synced [6:0] $end
$var parameter 32 < C_DEPTH [31:0] $end
$var parameter 32 = C_WIDTH [31:0] $end
$var parameter 32 > COUNTER_WIDTH [31:0] $end
$scope module genblk1[0].wr_ptr_gray_synchronizer $end
$var wire 1 / i_clk $end
$var wire 1 0 i_rst $end
$var wire 1 ? i_data $end
$var wire 1 @ o_data $end
$var parameter 32 A C_NUM_LEVELS [31:0] $end
$upscope $end
$scope module genblk1[1].wr_ptr_gray_synchronizer $end
$var wire 1 / i_clk $end
$var wire 1 0 i_rst $end
$var wire 1 B i_data $end
$var wire 1 C o_data $end
$var parameter 32 D C_NUM_LEVELS [31:0] $end
$upscope $end
$scope module genblk1[2].wr_ptr_gray_synchronizer $end
$var wire 1 / i_clk $end
$var wire 1 0 i_rst $end
$var wire 1 E i_data $end
$var wire 1 F o_data $end
$var parameter 32 G C_NUM_LEVELS [31:0] $end
$upscope $end
$scope module genblk1[3].wr_ptr_gray_synchronizer $end
$var wire 1 / i_clk $end
$var wire 1 0 i_rst $end
$var wire 1 H i_data $end
$var wire 1 I o_data $end
$var parameter 32 J C_NUM_LEVELS [31:0] $end
$upscope $end
$scope module genblk1[4].wr_ptr_gray_synchronizer $end
$var wire 1 / i_clk $end
$var wire 1 0 i_rst $end
$var wire 1 K i_data $end
$var wire 1 L o_data $end
$var parameter 32 M C_NUM_LEVELS [31:0] $end
$upscope $end
$scope module genblk1[5].wr_ptr_gray_synchronizer $end
$var wire 1 / i_clk $end
$var wire 1 0 i_rst $end
$var wire 1 N i_data $end
$var wire 1 O o_data $end
$var parameter 32 P C_NUM_LEVELS [31:0] $end
$upscope $end
$scope module genblk1[6].wr_ptr_gray_synchronizer $end
$var wire 1 / i_clk $end
$var wire 1 0 i_rst $end
$var wire 1 Q i_data $end
$var wire 1 R o_data $end
$var parameter 32 S C_NUM_LEVELS [31:0] $end
$upscope $end
$scope module genblk2[0].rd_ptr_synchronizer $end
$var wire 1 3 i_clk $end
$var wire 1 4 i_rst $end
$var wire 1 T i_data $end
$var wire 1 U o_data $end
$var parameter 32 V C_NUM_LEVELS [31:0] $end
$upscope $end
$scope module genblk2[1].rd_ptr_synchronizer $end
$var wire 1 3 i_clk $end
$var wire 1 4 i_rst $end
$var wire 1 W i_data $end
$var wire 1 X o_data $end
$var parameter 32 Y C_NUM_LEVELS [31:0] $end
$upscope $end
$scope module genblk2[2].rd_ptr_synchronizer $end
$var wire 1 3 i_clk $end
$var wire 1 4 i_rst $end
$var wire 1 Z i_data $end
$var wire 1 [ o_data $end
$var parameter 32 \ C_NUM_LEVELS [31:0] $end
$upscope $end
$scope module genblk2[3].rd_ptr_synchronizer $end
$var wire 1 3 i_clk $end
$var wire 1 4 i_rst $end
$var wire 1 ] i_data $end
$var wire 1 ^ o_data $end
$var parameter 32 _ C_NUM_LEVELS [31:0] $end
$upscope $end
$scope module genblk2[4].rd_ptr_synchronizer $end
$var wire 1 3 i_clk $end
$var wire 1 4 i_rst $end
$var wire 1 ` i_data $end
$var wire 1 a o_data $end
$var parameter 32 b C_NUM_LEVELS [31:0] $end
$upscope $end
$scope module genblk2[5].rd_ptr_synchronizer $end
$var wire 1 3 i_clk $end
$var wire 1 4 i_rst $end
$var wire 1 c i_data $end
$var wire 1 d o_data $end
$var parameter 32 e C_NUM_LEVELS [31:0] $end
$upscope $end
$scope module genblk2[6].rd_ptr_synchronizer $end
$var wire 1 3 i_clk $end
$var wire 1 4 i_rst $end
$var wire 1 f i_data $end
$var wire 1 g o_data $end
$var parameter 32 h C_NUM_LEVELS [31:0] $end
$upscope $end
$scope function bin2gray $end
$var reg 7 i bin2gray [6:0] $end
$var reg 7 j bin_ip [6:0] $end
$upscope $end
$upscope $end
$upscope $end
$enddefinitions $end
#0
$dumpvars
0!
0"
x#
x$
x%
x&
x'
x(
bx )
bx *
b1010 +
b1111 ,
b100000 -
b1000000 .
0/
x0
x1
bx 2
03
x4
x5
bx 6
bx 7
bx 8
bx 9
bx :
bx ;
b1000000 <
b100000 =
b111 >
x?
x@
b10 A
xB
xC
b10 D
xE
xF
b10 G
xH
xI
b10 J
xK
xL
b10 M
xN
xO
b10 P
xQ
xR
b10 S
xT
xU
b10 V
xW
xX
b10 Y
xZ
x[
b10 \
x]
x^
b10 _
x`
xa
b10 b
xc
xd
b10 e
xf
xg
b10 h
bx i
bx j
$end
#5000
1!
1/
#6000
1#
10
#7000
1"
13
#8000
1$
14
#10000
0!
0/
#14000
0"
03
#15000
1!
x'
x(
1/
b0 6
b0 8
b0 :
0?
0@
0B
0C
0E
0F
0H
0I
0K
0L
0N
0O
0Q
0R
b0 i
b0 j
#16000
0#
00
#20000
0!
0/
#21000
1"
0'
1(
13
b0 7
b0 9
b0 ;
0T
0U
0W
0X
0Z
0[
0]
0^
0`
0a
0c
0d
0f
0g
#22000
0$
04
#23000
0&
05
#25000
1!
1/
#28000
0"
03
#30000
0!
0/
#35000
1!
1"
1/
13
#36000
1%
11
#37000
b1101001011001100001001000010110 )
b1101001011001100001001000010110 2
#40000
0!
0/
#42000
0"
03
#45000
1!
0'
b1101001011001100001001000010110 *
1/
b1 6
b1 8
1?
0B
0E
0H
0K
0N
0Q
b1 i
b1 j
#46000
b1011010001011001001111100100 )
b1011010001011001001111100100 2
#49000
1"
13
#50000
0!
0/
#55000
1!
0'
1/
b10 6
b11 8
1?
1B
0E
0H
0K
0N
0Q
b11 i
b10 j
#56000
0"
b10001101100100100100011000100100 )
b10001101100100100100011000100100 2
03
#60000
0!
0/
#63000
1"
13
#65000
1!
0'
0(
1/
b11 6
b10 8
b1 :
0?
1@
1B
0E
0H
0K
0N
0Q
b10 i
b11 j
#66000
b1001000010011110011010110000100 )
b1001000010011110011010110000100 2
#70000
0!
0"
0/
03
#75000
1!
0'
0(
1/
b100 6
b110 8
b11 :
0?
1B
1C
1E
0H
0K
0N
0Q
b110 i
b100 j
#76000
b110000101011000000001000111011 )
b110000101011000000001000111011 2
#77000
1"
13
#80000
0!
0/
#84000
0"
03
#85000
1!
0'
0(
1/
b101 6
b111 8
b10 :
1?
0@
1B
1E
0H
0K
0N
0Q
b111 i
b101 j
#86000
b101001000100101001000000010110 )
b101001000100101001000000010110 2
#90000
0!
0/
#91000
1"
13
#95000
1!
0'
0(
1/
b110 6
b101 8
b110 :
1?
0B
1E
1F
0H
0K
0N
0Q
b101 i
b110 j
#96000
b11010101100000001101101111010 )
b11010101100000001101101111010 2
#98000
0"
03
#100000
0!
0/
#105000
1!
1"
0'
0(
1/
13
b111 6
b100 8
b111 :
0?
1@
0B
1E
0H
0K
0N
0Q
b100 i
b111 j
#106000
b11010000100100001010001010001 )
b11010000100100001010001010001 2
#110000
0!
0/
#112000
0"
03
#115000
1!
0'
0(
1/
b1000 6
b1100 8
b101 :
0?
0B
0C
1E
1H
0K
0N
0Q
b1100 i
b1000 j
#116000
b10110100010110000010001111111011 )
b10110100010110000010001111111011 2
#119000
1"
13
#120000
0!
0/
#125000
1!
0'
0(
1/
b1001 6
b1101 8
b100 :
1?
0@
0B
1E
1H
0K
0N
0Q
b1101 i
b1001 j
#126000
0"
b101000010000100110000110011110 )
b101000010000100110000110011110 2
03
#130000
0!
0/
#133000
1"
13
#135000
1!
0'
0(
1/
b1010 6
b1111 8
b1100 :
1?
1B
1E
1H
1I
0K
0N
0Q
b1111 i
b1010 j
#136000
b1100010011000010100100111010110 )
b1100010011000010100100111010110 2
#140000
0!
0"
0/
03
#145000
1!
0'
0(
1/
b1011 6
b1110 8
b1101 :
0?
1@
1B
1E
1H
0K
0N
0Q
b1110 i
b1011 j
#146000
b1100101000001000010011000110110 )
b1100101000001000010011000110110 2
#147000
1"
13
#150000
0!
0/
#154000
0"
03
#155000
1!
0'
0(
1/
b1100 6
b1010 8
b1111 :
0?
1B
1C
0E
1H
0K
0N
0Q
b1010 i
b1100 j
#156000
b1010001010101001111000110110101 )
b1010001010101001111000110110101 2
#160000
0!
0/
#161000
1"
13
#165000
1!
0'
0(
1/
b1101 6
b1011 8
b1110 :
1?
0@
1B
0E
1H
0K
0N
0Q
b1011 i
b1101 j
#166000
b1111101000100010110010101010000 )
b1111101000100010110010101010000 2
#168000
0"
03
#170000
0!
0/
#175000
1!
1"
0'
0(
1/
13
b1110 6
b1001 8
b1010 :
1?
0B
0E
0F
1H
0K
0N
0Q
b1001 i
b1110 j
#176000
b1111111000101100011101010001000 )
b1111111000101100011101010001000 2
#180000
0!
0/
#182000
0"
03
#185000
1!
0'
0(
1/
b1111 6
b1000 8
b1011 :
0?
1@
0B
0E
1H
0K
0N
0Q
b1000 i
b1111 j
#186000
b10000101101011010001010110110000 )
b10000101101011010001010110110000 2
#189000
1"
13
#190000
0!
0/
#195000
1!
0'
0(
1/
b10000 6
b11000 8
b1001 :
0?
0B
0C
0E
1H
1K
0N
0Q
b11000 i
b10000 j
#196000
0"
b10100101010100111100011011101111 )
b10100101010100111100011011101111 2
03
#200000
0!
0/
#203000
1"
13
#205000
1!
0'
0(
1/
b10001 6
b11001 8
b1000 :
1?
0@
0B
0E
1H
1K
0N
0Q
b11001 i
b10001 j
#206000
b1100001011101111000010001011110 )
b1100001011101111000010001011110 2
#210000
0!
0"
0/
03
#215000
1!
0'
0(
1/
b10010 6
b11011 8
b11000 :
1?
1B
0E
1H
1K
1L
0N
0Q
b11011 i
b10010 j
#216000
b1101010101100010011101111100110 )
b1101010101100010011101111100110 2
#217000
1"
13
#220000
0!
0/
#224000
0"
03
#225000
1!
0'
0(
1/
b10011 6
b11010 8
b11001 :
0?
1@
1B
0E
1H
1K
0N
0Q
b11010 i
b10011 j
#226000
b1110110101010001011100010100100 )
b1110110101010001011100010100100 2
#230000
0!
0/
#231000
1"
13
#235000
1!
0'
0(
1/
b10100 6
b11110 8
b11011 :
0?
1B
1C
1E
1H
1K
0N
0Q
b11110 i
b10100 j
#236000
b1011110100010001110100110101110 )
b1011110100010001110100110101110 2
#238000
0"
03
#240000
0!
0/
#245000
1!
1"
0'
0(
1/
13
b10101 6
b11111 8
b11010 :
1?
0@
1B
1E
1H
1K
0N
0Q
b11111 i
b10101 j
#246000
b1101001110001110111011001101110 )
b1101001110001110111011001101110 2
#250000
0!
0/
#252000
0"
03
#255000
1!
0'
0(
1/
b10110 6
b11101 8
b11110 :
1?
0B
1E
1F
1H
1K
0N
0Q
b11101 i
b10110 j
#256000
b1111100010101011100111001010100 )
b1111100010101011100111001010100 2
#259000
1"
13
#260000
0!
0/
#265000
1!
0'
0(
1/
b10111 6
b11100 8
b11111 :
0?
1@
0B
1E
1H
1K
0N
0Q
b11100 i
b10111 j
#266000
0"
b11110111001011000010011101 )
b11110111001011000010011101 2
03
#270000
0!
0/
#273000
1"
13
#275000
1!
0'
0(
1/
b11000 6
b10100 8
b11101 :
0?
0B
0C
1E
0H
1K
0N
0Q
b10100 i
b11000 j
#276000
b1001011001111101111101011001100 )
b1001011001111101111101011001100 2
#280000
0!
0"
0/
03
#285000
1!
0'
0(
1/
b11001 6
b10101 8
b11100 :
1?
0@
0B
1E
0H
1K
0N
0Q
b10101 i
b11001 j
#286000
b1100111000001110000101000111010 )
b1100111000001110000101000111010 2
#287000
1"
13
#290000
0!
0/
#294000
0"
03
#295000
1!
0'
0(
1/
b11010 6
b10111 8
b10100 :
1?
1B
1E
0H
0I
1K
0N
0Q
b10111 i
b11010 j
#296000
b1111010100001010110100101000001 )
b1111010100001010110100101000001 2
#300000
0!
0/
#301000
1"
13
#305000
1!
0'
0(
1/
b11011 6
b10110 8
b10101 :
0?
1@
1B
1E
0H
1K
0N
0Q
b10110 i
b11011 j
#306000
b10101001110001111110010001111011 )
b10101001110001111110010001111011 2
#308000
0"
03
#310000
0!
0/
#315000
1!
1"
0'
0(
1/
13
b11100 6
b10010 8
b10111 :
0?
1B
1C
0E
0H
1K
0N
0Q
b10010 i
b11100 j
#316000
b1010000110011101000000010101001 )
b1010000110011101000000010101001 2
#320000
0!
0/
#322000
0"
03
#325000
1!
0'
0(
1/
b11101 6
b10011 8
b10110 :
1?
0@
1B
0E
0H
1K
0N
0Q
b10011 i
b11101 j
#326000
b1110110110110110011011110010101 )
b1110110110110110011011110010101 2
#329000
1"
13
#330000
0!
0/
#335000
1!
0'
0(
1/
b11110 6
b10001 8
b10010 :
1?
0B
0E
0F
0H
1K
0N
0Q
b10001 i
b11110 j
#336000
0"
b101101101001001001010100011000 )
b101101101001001001010100011000 2
03
#340000
0!
0/
#343000
1"
13
#345000
1!
0'
0(
1/
b11111 6
b10000 8
b10011 :
0?
1@
0B
0E
0H
1K
0N
0Q
b10000 i
b11111 j
#346000
b11100000011010111101101110101 )
b11100000011010111101101110101 2
#350000
0!
0"
0/
03
#355000
1!
0'
0(
1/
b100000 6
b110000 8
b10001 :
0?
0B
0C
0E
0H
1K
1N
0Q
b110000 i
b100000 j
#356000
b1011101111000100100000111010000 )
b1011101111000100100000111010000 2
#357000
1"
13
#360000
0!
0/
#364000
0"
03
#365000
1!
0'
0(
1/
b100001 6
b110001 8
b10000 :
1?
0@
0B
0E
0H
1K
1N
0Q
b110001 i
b100001 j
#366000
b10101000001010011111111001011010 )
b10101000001010011111111001011010 2
#370000
0!
0/
#371000
1"
13
#375000
1!
0'
0(
1/
b100010 6
b110011 8
b110000 :
1?
1B
0E
0H
1K
1N
1O
0Q
b110011 i
b100010 j
#376000
b1000101110101010101111111110000 )
b1000101110101010101111111110000 2
#378000
0"
03
#380000
0!
0/
#385000
1!
1"
0'
0(
1/
13
b100011 6
b110010 8
b110001 :
0?
1@
1B
0E
0H
1K
1N
0Q
b110010 i
b100011 j
#386000
b10101110101100001100001001111001 )
b10101110101100001100001001111001 2
#390000
0!
0/
#392000
0"
03
#395000
1!
0'
0(
1/
b100100 6
b110110 8
b110011 :
0?
1B
1C
1E
0H
1K
1N
0Q
b110110 i
b100100 j
#396000
b11111000001010011010111101111 )
b11111000001010011010111101111 2
#399000
1"
13
#400000
0!
0/
#405000
1!
0'
0(
1/
b100101 6
b110111 8
b110010 :
1?
0@
1B
1E
0H
1K
1N
0Q
b110111 i
b100101 j
#406000
0"
b1110011011110011111010100001001 )
b1110011011110011111010100001001 2
03
#410000
0!
0/
#413000
1"
13
#415000
1!
0'
0(
1/
b100110 6
b110101 8
b110110 :
1?
0B
1E
1F
0H
1K
1N
0Q
b110101 i
b100110 j
#416000
b1001010101111100011110111101110 )
b1001010101111100011110111101110 2
#420000
0!
0"
0/
03
#425000
1!
0'
0(
1/
b100111 6
b110100 8
b110111 :
0?
1@
0B
1E
0H
1K
1N
0Q
b110100 i
b100111 j
#426000
b1111100111001110111011110111111 )
b1111100111001110111011110111111 2
#427000
1"
13
#430000
0!
0/
#434000
0"
03
#435000
1!
0'
0(
1/
b101000 6
b111100 8
b110101 :
0?
0B
0C
1E
1H
1K
1N
0Q
b111100 i
b101000 j
#436000
b10011011101000111111001101100011 )
b10011011101000111111001101100011 2
#440000
0!
0/
#441000
1"
13
#445000
1!
0'
0(
1/
b101001 6
b111101 8
b110100 :
1?
0@
0B
1E
1H
1K
1N
0Q
b111101 i
b101001 j
#446000
b10010000100100111001110111011111 )
b10010000100100111001110111011111 2
#448000
0"
03
#450000
0!
0/
#455000
1!
1"
0'
0(
1/
13
b101010 6
b111111 8
b111100 :
1?
1B
1E
1H
1I
1K
1N
0Q
b111111 i
b101010 j
#456000
b101011100110000011101000111000 )
b101011100110000011101000111000 2
#460000
0!
0/
#462000
0"
03
#465000
1!
0'
0(
1/
b101011 6
b111110 8
b111101 :
0?
1@
1B
1E
1H
1K
1N
0Q
b111110 i
b101011 j
#466000
b111010101010010010100101010010 )
b111010101010010010100101010010 2
#469000
1"
13
#470000
0!
0/
#475000
1!
0'
0(
1/
b101100 6
b111010 8
b111111 :
0?
1B
1C
0E
1H
1K
1N
0Q
b111010 i
b101100 j
#476000
0"
b10000100000011011001001011101000 )
b10000100000011011001001011101000 2
03
#480000
0!
0/
#483000
1"
13
#485000
1!
0'
0(
1/
b101101 6
b111011 8
b111110 :
1?
0@
1B
0E
1H
1K
1N
0Q
b111011 i
b101101 j
#486000
b1110110010101100111100000100111 )
b1110110010101100111100000100111 2
#490000
0!
0"
0/
03
#495000
1!
0'
0(
1/
b101110 6
b111001 8
b111010 :
1?
0B
0E
0F
1H
1K
1N
0Q
b111001 i
b101110 j
#496000
b10110111100100001010000100010010 )
b10110111100100001010000100010010 2
#497000
1"
13
#500000
0!
0/
#504000
0"
03
#505000
1!
0'
0(
1/
b101111 6
b111000 8
b111011 :
0?
1@
0B
0E
1H
1K
1N
0Q
b111000 i
b101111 j
#506000
b10011111101100011000011001001011 )
b10011111101100011000011001001011 2
#510000
0!
0/
#511000
1"
13
#515000
1!
0'
0(
1/
b110000 6
b101000 8
b111001 :
0?
0B
0C
0E
1H
0K
1N
0Q
b101000 i
b110000 j
#516000
b10000110111010100001011000000110 )
b10000110111010100001011000000110 2
#518000
0"
03
#520000
0!
0/
#525000
1!
1"
0'
0(
1/
13
b110001 6
b101001 8
b111000 :
1?
0@
0B
0E
1H
0K
1N
0Q
b101001 i
b110001 j
#526000
b1100011001010001101101101001010 )
b1100011001010001101101101001010 2
#530000
0!
0/
#532000
0"
03
#535000
1!
0'
0(
1/
b110010 6
b101011 8
b101000 :
1?
1B
0E
1H
0K
0L
1N
0Q
b101011 i
b110010 j
#536000
b1011010010110101010111110011101 )
b1011010010110101010111110011101 2
#539000
1"
13
#540000
0!
0/
#545000
1!
0'
0(
1/
b110011 6
b101010 8
b101001 :
0?
1@
1B
0E
1H
0K
1N
0Q
b101010 i
b110011 j
#546000
0"
b10001010111101111010100011101110 )
b10001010111101111010100011101110 2
03
#550000
0!
0/
#553000
1"
13
#555000
1!
0'
0(
1/
b110100 6
b101110 8
b101011 :
0?
1B
1C
1E
1H
0K
1N
0Q
b101110 i
b110100 j
#556000
b1011001011111110101001101110001 )
b1011001011111110101001101110001 2
#560000
0!
0"
0/
03
#565000
1!
0'
0(
1/
b110101 6
b101111 8
b101010 :
1?
0@
1B
1E
1H
0K
1N
0Q
b101111 i
b110101 j
#566000
b10001111010110101000010101111 )
b10001111010110101000010101111 2
#567000
1"
13
#570000
0!
0/
#574000
0"
03
#575000
1!
0'
0(
1/
b110110 6
b101101 8
b101110 :
1?
0B
1E
1F
1H
0K
1N
0Q
b101101 i
b110110 j
#576000
b10101010101010010010111100111001 )
b10101010101010010010111100111001 2
#580000
0!
0/
#581000
1"
13
#585000
1!
0'
0(
1/
b110111 6
b101100 8
b101111 :
0?
1@
0B
1E
1H
0K
1N
0Q
b101100 i
b110111 j
#586000
b1100000011010010110100101110111 )
b1100000011010010110100101110111 2
#588000
0"
03
#590000
0!
0/
#595000
1!
1"
0'
0(
1/
13
b111000 6
b100100 8
b101101 :
0?
0B
0C
1E
0H
0K
1N
0Q
b100100 i
b111000 j
#596000
b1110101000101000010101111111010 )
b1110101000101000010101111111010 2
#600000
0!
0/
#602000
0"
03
#605000
1!
0'
0(
1/
b111001 6
b100101 8
b101100 :
1?
0@
0B
1E
0H
0K
1N
0Q
b100101 i
b111001 j
#606000
b101000000111101111011010110 )
b101000000111101111011010110 2
#609000
1"
13
#610000
0!
0/
#615000
1!
0'
0(
1/
b111010 6
b100111 8
b100100 :
1?
1B
1E
0H
0I
0K
1N
0Q
b100111 i
b111010 j
#616000
0"
b1101011011000010001001001100101 )
b1101011011000010001001001100101 2
03
#620000
0!
0/
#623000
1"
13
#625000
1!
0'
0(
1/
b111011 6
b100110 8
b100101 :
0?
1@
1B
1E
0H
0K
1N
0Q
b100110 i
b111011 j
#626000
b1001110100100110111111101101011 )
b1001110100100110111111101101011 2
#630000
0!
0"
0/
03
#635000
1!
0'
0(
1/
b111100 6
b100010 8
b100111 :
0?
1B
1C
0E
0H
0K
1N
0Q
b100010 i
b111100 j
#636000
b10010110111011110010111110000110 )
b10010110111011110010111110000110 2
#637000
1"
13
#640000
0!
0/
#644000
0"
03
#645000
1!
0'
0(
1/
b111101 6
b100011 8
b100110 :
1?
0@
1B
0E
0H
0K
1N
0Q
b100011 i
b111101 j
#646000
b10110000010100100000110011110 )
b10110000010100100000110011110 2
#650000
0!
0/
#651000
1"
13
#655000
1!
0'
0(
1/
b111110 6
b100001 8
b100010 :
1?
0B
0E
0F
0H
0K
1N
0Q
b100001 i
b111110 j
#656000
b10101110111111001110100011100011 )
b10101110111111001110100011100011 2
#658000
0"
03
#660000
0!
0/
#665000
1!
1"
0'
0(
1/
13
b111111 6
b100000 8
b100011 :
0?
1@
0B
0E
0H
0K
1N
0Q
b100000 i
b111111 j
#666000
b10001100000000110101101110000000 )
b10001100000000110101101110000000 2
#670000
0!
0/
#672000
0"
03
#675000
1!
1'
0(
1/
b1000000 6
b1100000 8
b100001 :
0?
0B
0C
0E
0H
0K
1N
1Q
b1100000 i
b1000000 j
#676000
0%
01
#679000
1"
13
#680000
0!
1&
0/
15
#685000
1!
0(
1/
b100000 :
0@
#686000
0"
03
#690000
0!
0/
#693000
1"
0(
b1011010001011001001111100100 *
13
b1 7
b1 9
1T
0W
0Z
0]
0`
0c
0f
b1 i
b1 j
#695000
1!
0(
1/
b1100000 :
1R
#700000
0!
0"
0/
03
#705000
1!
1/
#707000
1"
0(
b10001101100100100100011000100100 *
13
b10 7
b11 9
1T
1W
0Z
0]
0`
0c
0f
b11 i
b10 j
#710000
0!
0/
#714000
0"
03
#715000
1!
1/
#720000
0!
0/
#721000
1"
0'
0(
b1001000010011110011010110000100 *
13
b11 7
b10 9
b1 ;
0T
1U
1W
0Z
0]
0`
0c
0f
b10 i
b11 j
#725000
1!
1/
#728000
0"
03
#730000
0!
0/
#735000
1!
1"
0'
0(
b110000101011000000001000111011 *
1/
13
b100 7
b110 9
b11 ;
0T
1W
1X
1Z
0]
0`
0c
0f
b110 i
b100 j
#740000
0!
0/
#742000
0"
03
#745000
1!
1/
#749000
1"
0'
0(
b101001000100101001000000010110 *
13
b101 7
b111 9
b10 ;
1T
0U
1W
1Z
0]
0`
0c
0f
b111 i
b101 j
#750000
0!
0/
#755000
1!
1/
#756000
0"
03
#760000
0!
0/
#763000
1"
0'
0(
b11010101100000001101101111010 *
13
b110 7
b101 9
b110 ;
1T
0W
1Z
1[
0]
0`
0c
0f
b101 i
b110 j
#765000
1!
1/
#770000
0!
0"
0/
03
#775000
1!
1/
#777000
1"
0'
0(
b11010000100100001010001010001 *
13
b111 7
b100 9
b111 ;
0T
1U
0W
1Z
0]
0`
0c
0f
b100 i
b111 j
#780000
0!
0/
#784000
0"
03
#785000
1!
1/
#790000
0!
0/
#791000
1"
0'
0(
b10110100010110000010001111111011 *
13
b1000 7
b1100 9
b101 ;
0T
0W
0X
1Z
1]
0`
0c
0f
b1100 i
b1000 j
#795000
1!
1/
#798000
0"
03
#800000
0!
0/
#805000
1!
1"
0'
0(
b101000010000100110000110011110 *
1/
13
b1001 7
b1101 9
b100 ;
1T
0U
0W
1Z
1]
0`
0c
0f
b1101 i
b1001 j
#810000
0!
0/
#812000
0"
03
#815000
1!
1/
#819000
1"
0'
0(
b1100010011000010100100111010110 *
13
b1010 7
b1111 9
b1100 ;
1T
1W
1Z
1]
1^
0`
0c
0f
b1111 i
b1010 j
#820000
0!
0/
#825000
1!
1/
#826000
0"
03
#830000
0!
0/
#833000
1"
0'
0(
b1100101000001000010011000110110 *
13
b1011 7
b1110 9
b1101 ;
0T
1U
1W
1Z
1]
0`
0c
0f
b1110 i
b1011 j
#835000
1!
1/
#840000
0!
0"
0/
03
#845000
1!
1/
#847000
1"
0'
0(
b1010001010101001111000110110101 *
13
b1100 7
b1010 9
b1111 ;
0T
1W
1X
0Z
1]
0`
0c
0f
b1010 i
b1100 j
#850000
0!
0/
#854000
0"
03
#855000
1!
1/
#860000
0!
0/
#861000
1"
0'
0(
b1111101000100010110010101010000 *
13
b1101 7
b1011 9
b1110 ;
1T
0U
1W
0Z
1]
0`
0c
0f
b1011 i
b1101 j
#865000
1!
1/
#868000
0"
03
#870000
0!
0/
#875000
1!
1"
0'
0(
b1111111000101100011101010001000 *
1/
13
b1110 7
b1001 9
b1010 ;
1T
0W
0Z
0[
1]
0`
0c
0f
b1001 i
b1110 j
#880000
0!
0/
#882000
0"
03
#885000
1!
1/
#889000
1"
0'
0(
b10000101101011010001010110110000 *
13
b1111 7
b1000 9
b1011 ;
0T
1U
0W
0Z
1]
0`
0c
0f
b1000 i
b1111 j
#890000
0!
0/
#895000
1!
1/
#896000
0"
03
#900000
0!
0/
#903000
1"
0'
0(
b10100101010100111100011011101111 *
13
b10000 7
b11000 9
b1001 ;
0T
0W
0X
0Z
1]
1`
0c
0f
b11000 i
b10000 j
#905000
1!
1/
#910000
0!
0"
0/
03
#915000
1!
1/
#917000
1"
0'
0(
b1100001011101111000010001011110 *
13
b10001 7
b11001 9
b1000 ;
1T
0U
0W
0Z
1]
1`
0c
0f
b11001 i
b10001 j
#920000
0!
0/
#924000
0"
03
#925000
1!
1/
#930000
0!
0/
#931000
1"
0'
0(
b1101010101100010011101111100110 *
13
b10010 7
b11011 9
b11000 ;
1T
1W
0Z
1]
1`
1a
0c
0f
b11011 i
b10010 j
#935000
1!
1/
#938000
0"
03
#940000
0!
0/
#945000
1!
1"
0'
0(
b1110110101010001011100010100100 *
1/
13
b10011 7
b11010 9
b11001 ;
0T
1U
1W
0Z
1]
1`
0c
0f
b11010 i
b10011 j
#950000
0!
0/
#952000
0"
03
#955000
1!
1/
#959000
1"
0'
0(
b1011110100010001110100110101110 *
13
b10100 7
b11110 9
b11011 ;
0T
1W
1X
1Z
1]
1`
0c
0f
b11110 i
b10100 j
#960000
0!
0/
#965000
1!
1/
#966000
0"
03
#970000
0!
0/
#973000
1"
0'
0(
b1101001110001110111011001101110 *
13
b10101 7
b11111 9
b11010 ;
1T
0U
1W
1Z
1]
1`
0c
0f
b11111 i
b10101 j
#975000
1!
1/
#980000
0!
0"
0/
03
#985000
1!
1/
#987000
1"
0'
0(
b1111100010101011100111001010100 *
13
b10110 7
b11101 9
b11110 ;
1T
0W
1Z
1[
1]
1`
0c
0f
b11101 i
b10110 j
#990000
0!
0/
#994000
0"
03
#995000
1!
1/
#1000000
0!
0/
#1001000
1"
0'
0(
b11110111001011000010011101 *
13
b10111 7
b11100 9
b11111 ;
0T
1U
0W
1Z
1]
1`
0c
0f
b11100 i
b10111 j
#1005000
1!
1/
#1008000
0"
03
#1010000
0!
0/
#1015000
1!
1"
0'
0(
b1001011001111101111101011001100 *
1/
13
b11000 7
b10100 9
b11101 ;
0T
0W
0X
1Z
0]
1`
0c
0f
b10100 i
b11000 j
#1020000
0!
0/
#1022000
0"
03
#1025000
1!
1/
#1029000
1"
0'
0(
b1100111000001110000101000111010 *
13
b11001 7
b10101 9
b11100 ;
1T
0U
0W
1Z
0]
1`
0c
0f
b10101 i
b11001 j
#1030000
0!
0/
#1035000
1!
1/
#1036000
0"
03
#1040000
0!
0/
#1043000
1"
0'
0(
b1111010100001010110100101000001 *
13
b11010 7
b10111 9
b10100 ;
1T
1W
1Z
0]
0^
1`
0c
0f
b10111 i
b11010 j
#1045000
1!
1/
#1050000
0!
0"
0/
03
#1055000
1!
1/
#1057000
1"
0'
0(
b10101001110001111110010001111011 *
13
b11011 7
b10110 9
b10101 ;
0T
1U
1W
1Z
0]
1`
0c
0f
b10110 i
b11011 j
#1060000
0!
0/
#1064000
0"
03
#1065000
1!
1/
#1070000
0!
0/
#1071000
1"
0'
0(
b1010000110011101000000010101001 *
13
b11100 7
b10010 9
b10111 ;
0T
1W
1X
0Z
0]
1`
0c
0f
b10010 i
b11100 j
#1075000
1!
1/
#1078000
0"
03
#1080000
0!
0/
#1085000
1!
1"
0'
0(
b1110110110110110011011110010101 *
1/
13
b11101 7
b10011 9
b10110 ;
1T
0U
1W
0Z
0]
1`
0c
0f
b10011 i
b11101 j
#1090000
0!
0/
#1092000
0"
03
#1095000
1!
1/
#1099000
1"
0'
0(
b101101101001001001010100011000 *
13
b11110 7
b10001 9
b10010 ;
1T
0W
0Z
0[
0]
1`
0c
0f
b10001 i
b11110 j
#1100000
0!
0/
#1105000
1!
1/
#1106000
0"
03
#1110000
0!
0/
#1113000
1"
0'
0(
b11100000011010111101101110101 *
13
b11111 7
b10000 9
b10011 ;
0T
1U
0W
0Z
0]
1`
0c
0f
b10000 i
b11111 j
#1115000
1!
1/
#1120000
0!
0"
0/
03
#1125000
1!
1/
